…
boot_straps
```

    ## # A tibble: 5,000 × 3
    ##    r_squared log_beta1_beta2 log_beta0_beta1
    ##        <dbl>           <dbl>           <dbl>
    ##  1     0.898           -5.44            2.11
    ##  2     0.928          NaN               2.10
    ##  3     0.925          NaN               2.12
    ##  4     0.931          NaN               2.11
    ##  5     0.915          NaN               2.11
    ##  6     0.918           -7.18            2.08
    ##  7     0.922          NaN               2.10
    ##  8     0.910           -6.65            2.07
    ##  9     0.910           -6.21            2.09
    ## 10     0.939          NaN               2.10
    ## # ℹ 4,990 more rows
…
birthweight_df = birthweight_df |>
  as.tibble() |>
  janitor::clean_names() |>
  drop_na() |>
  mutate(babysex = factor(case_match(babysex, 1 ~ 'male', 2 ~ 'female')),
         frace = factor(case_match(frace, 1 ~ "White", 2 ~ "Black", 3 ~ "Asian", 4 ~ "Puerto Rican", 8 ~ "Other", 9 ~ "Unknown")),
         malform = factor(case_match(malform, 0 ~ 'absent', 1 ~ 'present')),
         mrace = factor(case_match(mrace, 1 ~ "White", 2 ~ "Black", 3 ~ "Asian", 4 ~ "Puerto Rican", 8 ~ "Other")))

birthweight_df
```

    ## # A tibble: 4,342 × 20
    ##    babysex bhead blength   bwt delwt fincome frace gaweeks malform menarche
    ##    <fct>   <int>   <int> <int> <int>   <int> <fct>   <dbl> <fct>      <int>
    ##  1 female     34      51  3629   177      35 White    39.9 absent        13
    ##  2 male       34      48  3062   156      65 Black    25.9 absent        14
    ##  3 female     36      50  3345   148      85 White    39.9 absent        12
    ##  4 male       34      52  3062   157      55 White    40   absent        14
    ##  5 female     34      52  3374   156       5 White    41.6 absent        13
    ##  6 male       33      52  3374   129      55 White    40.7 absent        12
    ##  7 female     33      46  2523   126      96 Black    40.3 absent        14
    ##  8 female     33      49  2778   140       5 White    37.4 absent        12
    ##  9 male       36      52  3515   146      85 White    40.3 absent        11
    ## 10 male       33      50  3459   169      75 Black    40.7 absent        12
    ## # ℹ 4,332 more rows
    ## # ℹ 10 more variables: mheight <int>, momage <int>, mrace <fct>, parity <int>,
    ## #   pnumlbw <int>, pnumsga <int>, ppbmi <dbl>, ppwt <int>, smoken <dbl>,
    ## #   wtgain <int>
…
